Expand columns — expand_columns • clinsight
…
    Value

    A data frame that usually will be longer than the original one.

    Examples

 df <- head(iris, n = 6) |> 
  dplyr::mutate(
    expansion_1 = list("feature.1, feature.2"), 
    expansion_2 = list("group.1, group.2")
    )
    
 # expand the data frame with the values in columns "expansion_1" and "expansion_2":
  expand_columns(df, c("expansion_1", "expansion_2"))
#> # A tibble: 24 × 7
#>    Sepal.Length Sepal.Width Petal.Length Petal.Width Species expansion_1
#>           <dbl>       <dbl>        <dbl>       <dbl> <fct>   <chr>      
#>  1          5.1         3.5          1.4         0.2 setosa  feature.1  
#>  2          5.1         3.5          1.4         0.2 setosa  feature.1  
#>  3          5.1         3.5          1.4         0.2 setosa  feature.2  
#>  4          5.1         3.5          1.4         0.2 setosa  feature.2  
#>  5          4.9         3            1.4         0.2 setosa  feature.1  
#>  6          4.9         3            1.4         0.2 setosa  feature.1  
#>  7          4.9         3            1.4         0.2 setosa  feature.2  
#>  8          4.9         3            1.4         0.2 setosa  feature.2  
#>  9          4.7         3.2          1.3         0.2 setosa  feature.1  
#> 10          4.7         3.2          1.3         0.2 setosa  feature.1  
#> # ℹ 14 more rows
#> # ℹ 1 more variable: expansion_2 <chr>

# You can also unite the values in the expansion columns with any column in the data frame, 
# and remove column "expansion_1" but keep column "expansion_2" afterwards:
expand_columns(df, c("expansion_1", "expansion_2"),  
  unite_with = "Species", remove_cols = c(TRUE, FALSE))
#> # A tibble: 24 × 6
#>    Sepal.Length Sepal.Width Petal.Length Petal.Width Species         expansion_2
#>           <dbl>       <dbl>        <dbl>       <dbl> <chr>           <chr>      
#>  1          5.1         3.5          1.4         0.2 setosa_feature… group.1    
#>  2          5.1         3.5          1.4         0.2 setosa_feature… group.2    
#>  3          5.1         3.5          1.4         0.2 setosa_feature… group.1    
#>  4          5.1         3.5          1.4         0.2 setosa_feature… group.2    
#>  5          4.9         3            1.4         0.2 setosa_feature… group.1    
#>  6          4.9         3            1.4         0.2 setosa_feature… group.2    
#>  7          4.9         3            1.4         0.2 setosa_feature… group.1    
#>  8          4.9         3            1.4         0.2 setosa_feature… group.2    
#>  9          4.7         3.2          1.3         0.2 setosa_feature… group.1    
#> 10          4.7         3.2          1.3         0.2 setosa_feature… group.2    
#> # ℹ 14 more rows
…
